{
  "resource-url": "https://gist.github.com/trox/5f26ed428a6b1b3e9a94ac8914b1f931#file-het-assortiment-van-duivelaar-pompen-md",
  "curator": "trox",
  "timestamp": 1551548584878,
  "source": {
    "course-id": "9ea77d63-87b2-4a20-afc0-2a88d3a84eba",
    "revision": 2,
    "checkpoint-id": "822d7fd8-3e6f-4475-b978-e87bbc258a7a"
  },
  "course": {
    "description": "In deze module maak je kennis met pompen: hoe werkt een pomp?\nEn je maakt kennis met een leverancier van pompen: Duivelaar Pompen en hun assortiment. Hoeveel verschillende soorten pompen verkoopt Duivelaar?",
    "base-id": "9ea77d63-87b2-4a20-afc0-2a88d3a84eba",
    "repository": "offcourse",
    "revision": 2,
    "curator": "trox",
    "goal": "introductie: pompen",
    "checkpoints": [
      {
        "resource-url": "https://gist.github.com/trox/b31c942012cddcaf68066e687ec75172",
        "checkpoint-id": "3d2a201b-190a-44f1-8f62-cfc6b722edbe",
        "task": "het leven van een pomp"
      },
      {
        "resource-url": "https://gist.github.com/trox/09419195278dac8c8f5ec878fffcf74f",
        "checkpoint-id": "6fcc1066-180e-4600-9bf3-2d681cb90c05",
        "task": "hoe werkt een pomp"
      },
      {
        "resource-url": "https://gist.github.com/trox/5f26ed428a6b1b3e9a94ac8914b1f931#file-het-assortiment-van-duivelaar-pompen-md",
        "checkpoint-id": "822d7fd8-3e6f-4475-b978-e87bbc258a7a",
        "task": "duivelaar pompen"
      }
    ],
    "parent-id": null,
    "timestamp": 1544978544626,
    "course-id": "9ea77d63-87b2-4a20-afc0-2a88d3a84eba"
  },
  "resource": "not-found",
  "raw-resource": "not-found"
}
