{
  "resource": "/canary",
  "path": "/canary",
  "httpMethod": "POST",
  "headers": {
    "Accept": "*/*",
    "Accept-Encoding": "gzip, deflate, br",
    "Accept-Language": "en-US,en;q=0.9,nl-NL;q=0.8,nl;q=0.7",
    "Authorization": "GUEST",
    "CloudFront-Forwarded-Proto": "https",
    "CloudFront-Is-Desktop-Viewer": "true",
    "CloudFront-Is-Mobile-Viewer": "false",
    "CloudFront-Is-SmartTV-Viewer": "false",
    "CloudFront-Is-Tablet-Viewer": "false",
    "CloudFront-Viewer-Country": "NL",
    "content-type": "application/json",
    "Host": "hc08s499q4.execute-api.us-east-1.amazonaws.com",
    "origin": "https://beta.offcourse.io",
    "Referer": "https://beta.offcourse.io/curator/yeehaa/goal/get%20acquainted%20with%20wireless%20sensor%20networks/task/types%20of%20wireless%20sensor%20networks",
    "User-Agent": "Mozilla/5.0 (Windows NT 10.0; Win64; x64) AppleWebKit/537.36 (KHTML, like Gecko) Chrome/71.0.3578.98 Safari/537.36",
    "Via": "2.0 37b010671d329179b4de819b0a4d4f15.cloudfront.net (CloudFront)",
    "X-Amz-Cf-Id": "n10LEM8Aa9kknmwafQa-PvXpqGGZeOPk_XcCikVIvrc1-1taKMSTPw==",
    "X-Amzn-Trace-Id": "Root=1-5c2b75d3-b391eb6215c43810be21cfae",
    "X-Forwarded-For": "82.95.194.172, 52.46.38.8",
    "X-Forwarded-Port": "443",
    "X-Forwarded-Proto": "https"
  },
  "multiValueHeaders": {
    "Accept": ["*/*"],
    "Accept-Encoding": ["gzip, deflate, br"],
    "Accept-Language": ["en-US,en;q=0.9,nl-NL;q=0.8,nl;q=0.7"],
    "Authorization": ["GUEST"],
    "CloudFront-Forwarded-Proto": ["https"],
    "CloudFront-Is-Desktop-Viewer": ["true"],
    "CloudFront-Is-Mobile-Viewer": ["false"],
    "CloudFront-Is-SmartTV-Viewer": ["false"],
    "CloudFront-Is-Tablet-Viewer": ["false"],
    "CloudFront-Viewer-Country": ["NL"],
    "content-type": ["application/json"],
    "Host": ["hc08s499q4.execute-api.us-east-1.amazonaws.com"],
    "origin": ["https://beta.offcourse.io"],
    "Referer": [
      "https://beta.offcourse.io/curator/yeehaa/goal/get%20acquainted%20with%20wireless%20sensor%20networks/task/types%20of%20wireless%20sensor%20networks"
    ],
    "User-Agent": [
      "Mozilla/5.0 (Windows NT 10.0; Win64; x64) AppleWebKit/537.36 (KHTML, like Gecko) Chrome/71.0.3578.98 Safari/537.36"
    ],
    "Via": ["2.0 37b010671d329179b4de819b0a4d4f15.cloudfront.net (CloudFront)"],
    "X-Amz-Cf-Id": ["n10LEM8Aa9kknmwafQa-PvXpqGGZeOPk_XcCikVIvrc1-1taKMSTPw=="],
    "X-Amzn-Trace-Id": ["Root=1-5c2b75d3-b391eb6215c43810be21cfae"],
    "X-Forwarded-For": ["82.95.194.172, 52.46.38.8"],
    "X-Forwarded-Port": ["443"],
    "X-Forwarded-Proto": ["https"]
  },
  "queryStringParameters": null,
  "multiValueQueryStringParameters": null,
  "pathParameters": null,
  "stageVariables": null,
  "requestContext": {
    "resourceId": "ktz5je",
    "authorizer": {
      "authenticated": "false",
      "role": "guest",
      "principalId": "guest"
    },
    "resourcePath": "/canary",
    "httpMethod": "POST",
    "extendedRequestId": "S09ZFGHYoAMFcPA=",
    "requestTime": "01/Jan/2019:14:14:43 +0000",
    "path": "/v1/canary",
    "accountId": "667764274250",
    "protocol": "HTTP/1.1",
    "stage": "v1",
    "domainPrefix": "hc08s499q4",
    "requestTimeEpoch": 1546352083762,
    "requestId": "960211c2-0dcf-11e9-93ee-19a9f4fb447a",
    "identity": {
      "cognitoIdentityPoolId": null,
      "accountId": null,
      "cognitoIdentityId": null,
      "caller": null,
      "sourceIp": "82.95.194.172",
      "accessKey": null,
      "cognitoAuthenticationType": null,
      "cognitoAuthenticationProvider": null,
      "userArn": null,
      "userAgent": "Mozilla/5.0 (Windows NT 10.0; Win64; x64) AppleWebKit/537.36 (KHTML, like Gecko) Chrome/71.0.3578.98 Safari/537.36",
      "user": null
    },
    "domainName": "hc08s499q4.execute-api.us-east-1.amazonaws.com",
    "apiId": "hc08s499q4"
  },
  "body": "{\"operationName\":\"checkpoint\",\"variables\":{\"checkpointQuery\":{\"curator\":\"jameshands\",\"goal\":\"get acquainted with wireless sensor networks\",\"task\":\"types of wireless sensor networks\"},\"isAuthenticated\":false},\"query\":\"query checkpoint($checkpointQuery: CheckpointQuery!, $isAuthenticated: Boolean!) {\\n  checkpoint(checkpointQuery: $checkpointQuery) {\\n    checkpointId\\n    task\\n    tags\\n    completed @include(if: $isAuthenticated)\\n    resource {\\n      resourceType\\n      resourceUrl\\n      title\\n      tags\\n      description\\n      content {\\n        ... on HTML {\\n          markdown\\n          __typename\\n        }\\n        ... on Video {\\n          videoId\\n          videoProvider\\n          __typename\\n        }\\n        __typename\\n      }\\n      __typename\\n    }\\n    __typename\\n  }\\n}\\n\"}",
  "isBase64Encoded": false
}
