{
  "resource": "/graphql",
  "path": "/graphql",
  "httpMethod": "POST",
  "headers": {
    "Accept": "*/*",
    "Accept-Encoding": "gzip, deflate, br",
    "Accept-Language": "en-US,en;q=0.9,nl-NL;q=0.8,nl;q=0.7",
    "Authorization": "GUEST",
    "CloudFront-Forwarded-Proto": "https",
    "CloudFront-Is-Desktop-Viewer": "true",
    "CloudFront-Is-Mobile-Viewer": "false",
    "CloudFront-Is-SmartTV-Viewer": "false",
    "CloudFront-Is-Tablet-Viewer": "false",
    "CloudFront-Viewer-Country": "NL",
    "content-type": "application/json",
    "Host": "api.offcourse.io",
    "origin": "https://offcourse.io",
    "Referer": "https://offcourse.io/curator/dennis/goal/discover%20design%20thinking",
    "User-Agent": "Mozilla/5.0 (Windows NT 10.0; Win64; x64) AppleWebKit/537.36 (KHTML, like Gecko) Chrome/70.0.3538.110 Safari/537.36",
    "Via": "2.0 0932b0f7b83052f195bba4d87316beab.cloudfront.net (CloudFront)",
    "X-Amz-Cf-Id": "8aC6h4YFH5hIGaoPWj_pLlvkN7CoC9eX5b_WsWXnZPdn9ydcuwrZtg==",
    "X-Amzn-Trace-Id": "Root=1-5c02ea39-12923c66e2f296efa5113ca8",
    "X-Forwarded-For": "82.95.194.172, 70.132.49.97",
    "X-Forwarded-Port": "443",
    "X-Forwarded-Proto": "https"
  },
  "multiValueHeaders": {
    "Accept": ["*/*"],
    "Accept-Encoding": ["gzip, deflate, br"],
    "Accept-Language": ["en-US,en;q=0.9,nl-NL;q=0.8,nl;q=0.7"],
    "Authorization": ["GUEST"],
    "CloudFront-Forwarded-Proto": ["https"],
    "CloudFront-Is-Desktop-Viewer": ["true"],
    "CloudFront-Is-Mobile-Viewer": ["false"],
    "CloudFront-Is-SmartTV-Viewer": ["false"],
    "CloudFront-Is-Tablet-Viewer": ["false"],
    "CloudFront-Viewer-Country": ["NL"],
    "content-type": ["application/json"],
    "Host": ["api.offcourse.io"],
    "origin": ["https://offcourse.io"],
    "Referer": [
      "https://offcourse.io/curator/dennis/goal/discover%20design%20thinking"
    ],
    "User-Agent": [
      "Mozilla/5.0 (Windows NT 10.0; Win64; x64) AppleWebKit/537.36 (KHTML, like Gecko) Chrome/70.0.3538.110 Safari/537.36"
    ],
    "Via": ["2.0 0932b0f7b83052f195bba4d87316beab.cloudfront.net (CloudFront)"],
    "X-Amz-Cf-Id": ["8aC6h4YFH5hIGaoPWj_pLlvkN7CoC9eX5b_WsWXnZPdn9ydcuwrZtg=="],
    "X-Amzn-Trace-Id": ["Root=1-5c02ea39-12923c66e2f296efa5113ca8"],
    "X-Forwarded-For": ["82.95.194.172, 70.132.49.97"],
    "X-Forwarded-Port": ["443"],
    "X-Forwarded-Proto": ["https"]
  },
  "queryStringParameters": null,
  "multiValueQueryStringParameters": null,
  "pathParameters": null,
  "stageVariables": null,
  "requestContext": {
    "resourceId": "maff6p",
    "authorizer": {
      "authenticated": "false",
      "role": "guest",
      "principalId": "guest"
    },
    "resourcePath": "/graphql",
    "httpMethod": "POST",
    "extendedRequestId": "RPmI-F04IAMF51A=",
    "requestTime": "01/Dec/2018:20:08:25 +0000",
    "path": "/graphql",
    "accountId": "667764274250",
    "protocol": "HTTP/1.1",
    "stage": "v1",
    "domainPrefix": "api",
    "requestTimeEpoch": 1543694905446,
    "requestId": "dc4fd122-f5a4-11e8-ad27-bb588be244e7",
    "identity": {
      "cognitoIdentityPoolId": null,
      "accountId": null,
      "cognitoIdentityId": null,
      "caller": null,
      "sourceIp": "82.95.194.172",
      "accessKey": null,
      "cognitoAuthenticationType": null,
      "cognitoAuthenticationProvider": null,
      "userArn": null,
      "userAgent": "Mozilla/5.0 (Windows NT 10.0; Win64; x64) AppleWebKit/537.36 (KHTML, like Gecko) Chrome/70.0.3538.110 Safari/537.36",
      "user": null
    },
    "domainName": "api.offcourse.io",
    "apiId": "hc08s499q4"
  },
  "body": "{\"operationName\":\"course\",\"variables\":{\"courseQuery\":{\"curator\":\"dennis\",\"goal\":\"discover design thinking\"},\"needsContent\":false,\"isAuthenticated\":false},\"query\":\"query course($courseQuery: CourseQuery, $courseId: String, $isAuthenticated: Boolean!) {\\n  course(courseQuery: $courseQuery, courseId: $courseId) {\\n    ...CourseData\\n    __typename\\n  }\\n}\\n\\nfragment CourseData on Course {\\n  goal\\n  curator\\n  courseUrl\\n  fork @include(if: $isAuthenticated) {\\n    curator\\n    goal\\n    __typename\\n  }\\n  timestamp\\n  courseId\\n  description\\n  revision\\n  tags\\n  checkpoints {\\n    task\\n    tags\\n    checkpointId\\n    resourceUrl\\n    completed @include(if: $isAuthenticated)\\n    resource {\\n      resourceType\\n      __typename\\n    }\\n    __typename\\n  }\\n  __typename\\n}\\n\"}",
  "isBase64Encoded": false
}
