{
  "resource": "/graphql",
  "path": "/graphql",
  "httpMethod": "POST",
  "headers": null,
  "queryStringParameters": null,
  "pathParameters": null,
  "stageVariables": null,
  "requestContext": {
    "accountId": "774182433398",
    "resourceId": "6mc3i1",
    "stage": "test-invoke-stage",
    "requestId": "test-invoke-request",
    "identity": {
      "cognitoIdentityPoolId": null,
      "accountId": "774182433398",
      "cognitoIdentityId": null,
      "caller": "774182433398",
      "apiKey": "test-invoke-api-key",
      "sourceIp": "test-invoke-source-ip",
      "accessKey": "ASIAJWY5UOYNYAWXFLBQ",
      "cognitoAuthenticationType": null,
      "cognitoAuthenticationProvider": null,
      "userArn": "arn:aws:iam::774182433398:root",
      "userAgent": "Apache-HttpClient/4.5.x (Java/1.8.0_112)",
      "user": "774182433398"
    },
    "resourcePath": "/query",
    "httpMethod": "POST",
    "apiId": "bktf1aec99"
  },
  "body": {
    "query":
      "{resource(resourceUrl:\"https://medium.com/@michel.herszak/event-driven-architecture-467dac7a20b9\"){resourceType resourceUrl title tags description}}"
  },
  "isBase64Encoded": false
}
