[{
    "resource-url": "http://www.ted.com/talks/ian_ritchie_the_day_i_turned_down_tim_berners_lee",
    "curator": "yeehaa",
    "timestamp": 1490303043704,
    "source": {
        "course-id": "offcourse::yeehaa::-3764249133",
        "revision": 1,
        "checkpoint-id": "0"
    }
}, {
    "resource-url": "http://www.iicm.edu:8000/0x811bc82b_0x0005f59f",
    "curator": "yeehaa",
    "timestamp": 1490303043704,
    "source": {
        "course-id": "offcourse::yeehaa::-3764249133",
        "revision": 1,
        "checkpoint-id": "1"
    }
}, {
    "resource-url": "https://www.youtube.com/watch?v=y4gWr2fya0I",
    "curator": "yeehaa",
    "timestamp": 1490303043704,
    "source": {
        "course-id": "offcourse::yeehaa::-3764249133",
        "revision": 1,
        "checkpoint-id": "2"
    }
}, {
    "resource-url": "https://www.youtube.com/watch?v=06oqCcAnyjc",
    "curator": "yeehaa",
    "timestamp": 1490303043704,
    "source": {
        "course-id": "offcourse::yeehaa::-3764249133",
        "revision": 1,
        "checkpoint-id": "3"
    }
}, {
    "resource-url": "http://www.vulture.com/2016/10/halt-and-catch-fire-recap-season-3-episode-10.html",
    "curator": "yeehaa",
    "timestamp": 1490303043704,
    "source": {
        "course-id": "offcourse::yeehaa::-3764249133",
        "revision": 1,
        "checkpoint-id": "4"
    }
}]
