{
  "profile": {
    "user-name": "yeehaa"
  },
  "auth-profile": {
    "name": "Jan Hein Hoogstad",
    "picture": "https://avatars.githubusercontent.com/u/1780358?v=3",
    "company": "Offcourse",
    "website": "http://offcourse.io",
    "location": "Netherlands",
    "emails": [
      {
        "email": "yeehaa123@mac.com",
        "primary": false,
        "verified": true
      },
      {
        "email": "yeehaa@offcourse.io",
        "primary": true,
        "verified": true
      }
    ],
    "identities": [
      {
        "user_id": 1780358,
        "provider": "github",
        "connection": "github",
        "isSocial": true
      }
    ]
  }
}
