{
    "description": "Check out another of my videos: \"BREAKDOWN: Select and Mask vs. Refine Edge - Photoshop CC\" https://www.youtube.com/watch?v=DTw78XQNjAo -~-~~-~~~-~~-~- See more tutorials HERE: http://tutvid.com/ INSTAGRAM & MORE: http://instagram.com/tutvid http://twitter.com/tutvid https://www.facebook.com/tutvid DESCRIPTION: In this #CSSin30 tutorial we'll take a quick look at how you can link your .css document directly to your HTML document so you can begin writing CSS code that will style and beautiful your HTML content.",
    "tags": ["creative-cloud", "cascading-style-sheets", "adobe-dreamweaver", "dreamweaver-tutorial", "how-to-code", "design-a-website", "web-design"],
    "entities": [],
    "title": "How to Link CSS to HTML Document",
    "resource-type": "html",
    "resource-url": "https://www.youtube.com/watch?v=y4gWr2fya0I"
}
